…
##Task 3: Mean and median number of steps taken each day


```r
summarise(grp1,meanByDay = mean(steps,na.rm = TRUE),medianByDay = median(steps,na.rm = TRUE))
```

```
## # A tibble: 61 x 3
##    date       meanByDay medianByDay
##    <fct>          <dbl>       <dbl>
##  1 2012-10-01   NaN              NA
##  2 2012-10-02     0.438           0
##  3 2012-10-03    39.4             0
##  4 2012-10-04    42.1             0
##  5 2012-10-05    46.2             0
##  6 2012-10-06    53.5             0
##  7 2012-10-07    38.2             0
##  8 2012-10-08   NaN              NA
##  9 2012-10-09    44.5             0
## 10 2012-10-10    34.4             0
## # ... with 51 more rows
```
…
##Task 7: Histogram of the total number of steps taken each day after missing values are imputed


```r
#Grouping dataframe y by date and summarizing the steps
grp5 = group_by(y,date);grp6 = summarise(grp5,SumByDay = sum(steps))

# finding mean and median by date
summarise(grp5,meanByDay = mean(steps,na.rm = TRUE),medianByDay = median(steps,na.rm = TRUE))
```

```
## # A tibble: 61 x 3
##    date       meanByDay medianByDay
##    <fct>          <dbl>       <dbl>
##  1 2012-10-01    37.4          37.4
##  2 2012-10-02     0.438         0  
##  3 2012-10-03    39.4           0  
##  4 2012-10-04    42.1           0  
##  5 2012-10-05    46.2           0  
##  6 2012-10-06    53.5           0  
##  7 2012-10-07    38.2           0  
##  8 2012-10-08    37.4          37.4
##  9 2012-10-09    44.5           0  
## 10 2012-10-10    34.4           0  
## # ... with 51 more rows
```
…
